<svg width="24" height="24" viewBox="0 0 24 24" fill="none" xmlns="http://www.w3.org/2000/svg">
<path d="M5 16V19H19V16" stroke="#363837" stroke-linecap="round" stroke-linejoin="round"/>
<path d="M12 6V16" stroke="#363837" stroke-linecap="round" stroke-linejoin="round"/>
<path d="M7 9L12 5L17 9" stroke="#363837" stroke-linecap="round" stroke-linejoin="round"/>
</svg>
