<svg width="24" height="24" viewBox="0 0 24 24" fill="none" xmlns="http://www.w3.org/2000/svg">
<path fill-rule="evenodd" clip-rule="evenodd" d="M19.5607 7.83885C19.5607 6.182 18.2175 4.83885 16.5607 4.83885V4.83885L5.56066 15.8388L5.56066 18.8388L8.56066 18.8388L19.5607 7.83885V7.83885Z" stroke="#30BE76" stroke-linecap="round" stroke-linejoin="round"/>
<path d="M15.248 6.49756C15.248 6.49756 16.4382 6.70391 17.1559 7.42166C17.8737 8.13942 18.1693 9.16846 18.1693 9.16846" stroke="#30BE76" stroke-linecap="round" stroke-linejoin="round"/>
</svg>
